Lab 01 - Pet names – PRO1036
…
seattlepets %>%
  count(animal_name, sort = TRUE)

🧶 ✅ Ecrivez votre réponse dans le document, sous Exercice 3. Cette fois, votre réponse va également inclure un morceau de code. Utilisez le block de code mis à votre disposition pour ça. Knit et commit avec un message !

Exercice 4

Nous pouvons également voir les noms les plus communs pour chaque espèce. Pour cela, nous devons d’abord group_by() par l’species, puis faire le count.

seattlepets %>% 
  group_by(species) %>%
  count(animal_name, sort = TRUE)

# A tibble: 16,823 × 3
# Groups:   species [4]
   species animal_name     n
   <chr>   <chr>       <int>
 1 Cat     <NA>          406
 2 Dog     Lucy          337
 3 Dog     Charlie       306
 4 Dog     Bella         249
 5 Dog     Luna          244
 6 Dog     Daisy         221
 7 Dog     Cooper        189
 8 Dog     Lola          187
 9 Dog     Max           186
10 Dog     Molly         186
# ℹ 16,813 more rows
…
Cherchons le top 5 de chaque espèce. Pour cela, nous pouvons utiliser la fonction slice_max(). Le premier argument de la fonction est la variable dont nous voulons garder le plus grand nombre, dans notre cas n. Le deuxième argument est le nombre de lignes que nous voulons afficher, dans notre cas n=5. Ici, les deux arguments mentionnent un n. Dans le premier cas, il y a un variable appelé n dans le dataframe résultant du count, alors que dans le deuxième, il s’agit du nom de l’argument, définit dans slice_max().

seattlepets %>% 
  group_by(species) %>%
  count(animal_name, sort = TRUE) %>% 
  slice_max(n, n = 5)

# A tibble: 53 × 3
# Groups:   species [4]
   species animal_name     n
   <chr>   <chr>       <int>
 1 Cat     <NA>          406
 2 Cat     Luna          111
 3 Cat     Lucy          102
 4 Cat     Lily           86
 5 Cat     Max            83
 6 Dog     Lucy          337
 7 Dog     Charlie       306
 8 Dog     Bella         249
 9 Dog     Luna          244
10 Dog     Daisy         221
# ℹ 43 more rows
…
